<?xml version="1.0" encoding="UTF-8" standalone="no"?>
<!DOCTYPE svg PUBLIC "-//W3C//DTD SVG 1.1//EN"
 "http://www.w3.org/Graphics/SVG/1.1/DTD/svg11.dtd">
<!-- Generated by graphviz version 2.43.0 (0)
 -->
<!-- Title: G Pages: 1 -->
<svg width="344pt" height="279pt"
 viewBox="0.00 0.00 344.00 279.00" xmlns="http://www.w3.org/2000/svg" xmlns:xlink="http://www.w3.org/1999/xlink">
<g id="graph0" class="graph" transform="scale(1 1) rotate(0) translate(4 275)">
<title>G</title>
<g id="clust1" class="cluster">
<title>cluster_parser</title>
<path fill="transparent" stroke="black" d="M20,-8C20,-8 138,-8 138,-8 144,-8 150,-14 150,-20 150,-20 150,-71 150,-71 150,-77 144,-83 138,-83 138,-83 20,-83 20,-83 14,-83 8,-77 8,-71 8,-71 8,-20 8,-20 8,-14 14,-8 20,-8"/>
<text text-anchor="middle" x="79" y="-67.8" font-family="Times,serif" font-size="14.00">Parsers</text>
</g>
<g id="clust2" class="cluster">
<title>cluster_compress</title>
<path fill="transparent" stroke="black" d="M171,-8C171,-8 316,-8 316,-8 322,-8 328,-14 328,-20 328,-20 328,-71 328,-71 328,-77 322,-83 316,-83 316,-83 171,-83 171,-83 165,-83 159,-77 159,-71 159,-71 159,-20 159,-20 159,-14 165,-8 171,-8"/>
<text text-anchor="middle" x="243.5" y="-67.8" font-family="Times,serif" font-size="14.00">Compression</text>
</g>
<!-- ptscotch -->
<g id="node1" class="node">
<title>ptscotch</title>
<polygon fill="lightgrey" stroke="cyan" stroke-width="2" points="202.5,-271 109.5,-271 109.5,-235 202.5,-235 202.5,-271"/>
<text text-anchor="start" x="117.5" y="-250.3" font-family="Times,serif" font-weight="bold" font-size="14.00">PT&#45;Scotch</text>
</g>
<!-- scotch -->
<g id="node2" class="node">
<title>scotch</title>
<polygon fill="lightgrey" stroke="cyan" stroke-width="2" points="159.5,-199 90.5,-199 90.5,-163 159.5,-163 159.5,-199"/>
<text text-anchor="start" x="98.5" y="-178.3" font-family="Times,serif" font-weight="bold" font-size="14.00">Scotch</text>
</g>
<!-- ptscotch&#45;&gt;scotch -->
<g id="edge1" class="edge">
<title>ptscotch&#45;&gt;scotch</title>
<path fill="none" stroke="black" d="M148.34,-234.7C144.81,-226.73 140.54,-217.1 136.63,-208.26"/>
<polygon fill="black" stroke="black" points="139.82,-206.83 132.57,-199.1 133.42,-209.67 139.82,-206.83"/>
</g>
<!-- mpi -->
<g id="node3" class="node">
<title>mpi</title>
<polygon fill="none" stroke="gold" stroke-width="2" points="227,-127 173,-127 173,-91 227,-91 227,-127"/>
<text text-anchor="start" x="183" y="-106.3" font-family="Times,serif" font-weight="bold" font-size="14.00">MPI</text>
</g>
<!-- ptscotch&#45;&gt;mpi -->
<g id="edge2" class="edge">
<title>ptscotch&#45;&gt;mpi</title>
<path fill="none" stroke="black" d="M161.31,-234.87C168.84,-210.56 182.7,-165.82 191.63,-137.01"/>
<polygon fill="black" stroke="black" points="195.06,-137.78 194.67,-127.19 188.37,-135.71 195.06,-137.78"/>
</g>
<!-- pthread -->
<g id="node4" class="node">
<title>pthread</title>
<polygon fill="none" stroke="gold" stroke-width="2" points="154.5,-127 71.5,-127 71.5,-91 154.5,-91 154.5,-127"/>
<text text-anchor="start" x="79.5" y="-106.3" font-family="Times,serif" font-weight="bold" font-size="14.00">PThread</text>
</g>
<!-- scotch&#45;&gt;pthread -->
<g id="edge3" class="edge">
<title>scotch&#45;&gt;pthread</title>
<path fill="none" stroke="black" stroke-dasharray="1,5" d="M122.03,-162.7C120.71,-154.98 119.12,-145.71 117.65,-137.11"/>
<polygon fill="black" stroke="black" points="121.07,-136.37 115.93,-127.1 114.17,-137.55 121.07,-136.37"/>
</g>
<!-- lex -->
<g id="node6" class="node">
<title>lex</title>
<polygon fill="none" stroke="dimgrey" stroke-width="2" points="70,-52 16,-52 16,-16 70,-16 70,-52"/>
<text text-anchor="start" x="29" y="-31.3" font-family="Times,serif" font-weight="bold" font-size="14.00">Lex</text>
</g>
<!-- scotch&#45;&gt;lex -->
<g id="edge4" class="edge">
<title>scotch&#45;&gt;lex</title>
<path fill="none" stroke="black" stroke-dasharray="1,5" d="M97.02,-162.8C84.46,-153.67 70.56,-141.36 62,-127 55.86,-116.69 51.68,-104.71 48.84,-92.87"/>
<polygon fill="black" stroke="black" points="52.24,-92.06 46.75,-83 45.39,-93.51 52.24,-92.06"/>
</g>
<!-- libbz2 -->
<g id="node8" class="node">
<title>libbz2</title>
<polygon fill="none" stroke="dimgrey" stroke-width="2" points="232.5,-52 167.5,-52 167.5,-16 232.5,-16 232.5,-52"/>
<text text-anchor="start" x="175.5" y="-31.3" font-family="Times,serif" font-weight="bold" font-size="14.00">libbz2</text>
</g>
<!-- scotch&#45;&gt;libbz2 -->
<g id="edge5" class="edge">
<title>scotch&#45;&gt;libbz2</title>
<path fill="none" stroke="black" stroke-dasharray="1,5" d="M159.66,-173.66C185.6,-166.9 219.37,-153.37 236,-127 242.71,-116.36 242.62,-104.26 239.07,-92.41"/>
<polygon fill="black" stroke="black" points="242.33,-91.14 235.55,-83 235.78,-93.59 242.33,-91.14"/>
</g>
<!-- yacc -->
<g id="node5" class="node">
<title>yacc</title>
<polygon fill="none" stroke="dimgrey" stroke-width="2" points="142,-52 88,-52 88,-16 142,-16 142,-52"/>
<text text-anchor="start" x="97.5" y="-31.3" font-family="Times,serif" font-weight="bold" font-size="14.00">Yacc</text>
</g>
<!-- mpi&#45;&gt;yacc -->
<!-- mpi&#45;&gt;libbz2 -->
<!-- pthread&#45;&gt;yacc -->
<!-- pthread&#45;&gt;libbz2 -->
<!-- libzma -->
<g id="node7" class="node">
<title>libzma</title>
<polygon fill="none" stroke="dimgrey" stroke-width="2" points="319.5,-52 250.5,-52 250.5,-16 319.5,-16 319.5,-52"/>
<text text-anchor="start" x="258.5" y="-31.3" font-family="Times,serif" font-weight="bold" font-size="14.00">libzma</text>
</g>
</g>
</svg>
